<svg xmlns="http://www.w3.org/2000/svg" width="13.308" height="13.309" viewBox="0 0 13.308 13.309">
  <g id="Grupo_1888" data-name="Grupo 1888" transform="translate(867.776 -1220.34)">
    <g id="Grupo_1516" data-name="Grupo 1516">
      <g id="Grupo_1515" data-name="Grupo 1515">
        <path id="Trazado_11497" data-name="Trazado 11497" d="M-857.6,1222.717a.78.78,0,0,0-.78.78.78.78,0,0,0,.78.78.781.781,0,0,0,.781-.78A.781.781,0,0,0-857.6,1222.717Z" fill="#fff"/>
        <path id="Trazado_11498" data-name="Trazado 11498" d="M-861.067,1223.717a3.282,3.282,0,0,0-3.278,3.278,3.281,3.281,0,0,0,3.278,3.277,3.281,3.281,0,0,0,3.277-3.277A3.281,3.281,0,0,0-861.067,1223.717Zm0,5.377a2.1,2.1,0,0,1-2.1-2.1,2.1,2.1,0,0,1,2.1-2.1,2.1,2.1,0,0,1,2.1,2.1A2.1,2.1,0,0,1-861.067,1229.094Z" fill="#fff"/>
        <path id="Trazado_11499" data-name="Trazado 11499" d="M-858.465,1233.649h-5.314a4,4,0,0,1-4-4v-5.314a4,4,0,0,1,4-4h5.314a4,4,0,0,1,4,4v5.314A4,4,0,0,1-858.465,1233.649Zm-5.314-12.056a2.748,2.748,0,0,0-2.745,2.745v5.314a2.748,2.748,0,0,0,2.745,2.745h5.314a2.748,2.748,0,0,0,2.745-2.745v-5.314a2.748,2.748,0,0,0-2.745-2.745Z" fill="#fff"/>
      </g>
    </g>
  </g>
</svg>
