<svg xmlns="http://www.w3.org/2000/svg" xmlns:xlink="http://www.w3.org/1999/xlink" width="38.316" height="38.316" viewBox="0 0 38.316 38.316">
  <defs>
    <clipPath id="clip-path">
      <circle id="Elipse_57" data-name="Elipse 57" cx="19.158" cy="19.158" r="19.158" fill="none"/>
    </clipPath>
  </defs>
  <g id="Grupo_1901" data-name="Grupo 1901" transform="translate(-85 -950.755)">
    <g id="Grupo_1866" data-name="Grupo 1866" transform="translate(-2.063 -3580.006)">
      <g id="Grupo_1868" data-name="Grupo 1868" transform="translate(87.063 4530.761)" clip-path="url(#clip-path)">
        <g id="Grupo_1867" data-name="Grupo 1867" transform="translate(-5.73 -6.611)">
          <rect id="Rectángulo_940" data-name="Rectángulo 940" width="48.522" height="51.534" fill="#4d9c2d"/>
          <g id="Grupo_1866-2" data-name="Grupo 1866" transform="translate(10.166 15.11)">
            <path id="Trazado_11714" data-name="Trazado 11714" d="M112.4,4556.938v6.23a5.152,5.152,0,0,1-2.829,3.1,4.4,4.4,0,0,1-1.492.308c-1.133,0-1.675-.7-1.675-1.869v-4.548h3v-3.673h-3v-6.017h-2.264a8.506,8.506,0,0,1-6.8,6.017v3.673h3.084v5.4c0,2.136.2,3.09.887,4.141.954,1.447,2.826,2.444,5.557,1.942a9.263,9.263,0,0,0,5.776-3.422" transform="translate(-97.343 -4550.459)" fill="#fff"/>
            <path id="Trazado_11715" data-name="Trazado 11715" d="M140.036,4564.046a3.475,3.475,0,0,1-3.685,3.279v-4.656c2-2.091,3.989-1.008,3.685,1.376m3.56-5.631c-2.072-2.926-5.42-1.922-7.266-.4,0,0,0-2.656,0-3.15,0-2.112.066-4.209-2.015-4.4a4.951,4.951,0,0,0-2.862.859v19.368a15.184,15.184,0,0,0,5.678,1.049c4.4-.166,7.425-2.963,7.774-7.967a9.689,9.689,0,0,0-1.309-5.36" transform="translate(-116.732 -4550.453)" fill="#fff"/>
          </g>
        </g>
      </g>
    </g>
  </g>
</svg>
